{
	"ImportPath": "gitlab.com/gitlab-org/gitlab-ci-multi-runner",
	"GoVersion": "go1.6.0",
	"GodepVersion": "v60",
	"Packages": [
		"./..."
	],
	"Deps": [
		{
			"ImportPath": "github.com/BurntSushi/toml",
			"Comment": "v0.1.0-24-gffbe061",
			"Rev": "ffbe061dbf09df6f4d404ef06736cc2b9e2510f7"
		},
		{
			"ImportPath": "github.com/Sirupsen/logrus",
			"Comment": "v0.8.7",
			"Rev": "418b41d23a1bf978c06faea5313ba194650ac088"
		},
		{
			"ImportPath": "github.com/ayufan/golang-kardianos-service",
			"Rev": "0c8eb6d8fff2e2fb884a7bfd23e183fb63c0eff3"
		},
		{
			"ImportPath": "github.com/codegangsta/cli",
			"Comment": "1.2.0-139-g142e6cd",
			"Rev": "142e6cd241a4dfbf7f07a018f1f8225180018da4"
		},
		{
			"ImportPath": "github.com/docker/docker/pkg/homedir",
			"Comment": "v1.4.1-5743-g7ead74d",
			"Rev": "7ead74d903de625eef9dc0ec83ba5bcedd0bc0dc"
		},
		{
			"ImportPath": "github.com/fsouza/go-dockerclient",
			"Rev": "0099401a7342ad77e71ca9f9a57c5e72fb80f6b2"
		},
		{
			"ImportPath": "github.com/golang/mock/gomock",
			"Rev": "06883d979f10cc178f2716846215c8cf90f9e363"
		},
		{
			"ImportPath": "github.com/kardianos/osext",
			"Rev": "efacde03154693404c65e7aa7d461ac9014acd0c"
		},
		{
			"ImportPath": "github.com/minio/minio-go",
			"Comment": "v1.0.0-2-g1fe1145",
			"Rev": "1fe1145a231e36743b79939742debafaed1cd5d0"
		},
		{
			"ImportPath": "github.com/opencontainers/runc/libcontainer/user",
			"Comment": "v0.0.7-31-g4f60120",
			"Rev": "4f601205d475e1995472d81b3787b197008c5dd7"
		},
		{
			"ImportPath": "github.com/ramr/go-reaper",
			"Rev": "1a6cbc07ef2f7e248769ef4efd80aaa16f97ec12"
		},
		{
			"ImportPath": "github.com/stretchr/objx",
			"Rev": "cbeaeb16a013161a98496fad62933b1d21786672"
		},
		{
			"ImportPath": "github.com/stretchr/testify/assert",
			"Rev": "1297dc01ed0a819ff634c89707081a4df43baf6b"
		},
		{
			"ImportPath": "github.com/stretchr/testify/mock",
			"Rev": "1297dc01ed0a819ff634c89707081a4df43baf6b"
		},
		{
			"ImportPath": "github.com/stretchr/testify/require",
			"Rev": "1297dc01ed0a819ff634c89707081a4df43baf6b"
		},
		{
			"ImportPath": "gitlab.com/ayufan/golang-cli-helpers",
			"Rev": "0a14b63a7466ee44de4a90f998fad73afa8482bf"
		},
		{
			"ImportPath": "golang.org/x/crypto/curve25519",
			"Rev": "1f22c0103821b9390939b6776727195525381532"
		},
		{
			"ImportPath": "golang.org/x/crypto/ssh",
			"Rev": "1f22c0103821b9390939b6776727195525381532"
		},
		{
			"ImportPath": "golang.org/x/sys/unix",
			"Rev": "98fc11432b951eb53c62602ba4ae99d03c1fb7e2"
		},
		{
			"ImportPath": "golang.org/x/sys/windows",
			"Rev": "98fc11432b951eb53c62602ba4ae99d03c1fb7e2"
		},
		{
			"ImportPath": "gopkg.in/yaml.v1",
			"Rev": "9f9df34309c04878acc86042b16630b0f696e1de"
		}
	]
}
